﻿{
  "ProviderId": "Unchase.OData.ConnectedService",
  "Version": "1.4.2.0",
  "GettingStartedDocument": {
    "Uri": "https://msdn.microsoft.com/en-us/library/cc668772(v=vs.110).aspx"
  },
  "ExtendedData": {
    "OperationImportsGenerator": 1,
    "IncludeExtensionsT4File": true,
    "GenerateOperationImports": true,
    "ServiceName": "PRODBPP",
    "AcceptAllUntrustedCertificates": true,
    "Endpoint": "https://intranet.bmcjax.com/Teams/Bpp/_vti_bin/ListData.svc/$metadata",
    "EdmxVersion": {
      "Major": 1,
      "Minor": 0,
      "Build": 0,
      "Revision": 0,
      "MajorRevision": 0,
      "MinorRevision": 0
    },
    "GeneratedFileNamePrefix": "PRODBPP",
    "UseNameSpacePrefix": false,
    "NamespacePrefix": null,
    "UseDataServiceCollection": true,
    "UseAsyncDataServiceCollection": true,
    "OpenGeneratedFilesOnComplete": true,
    "LanguageOption": 0,
    "FunctionImports": null,
    "OperationImports": null,
    "ExcludedOperationImportsNames": "",
    "UseNetworkCredentials": false,
    "NetworkCredentialsUserName": null,
    "NetworkCredentialsPassword": null,
    "NetworkCredentialsDomain": null,
    "WebProxyUri": null,
    "UseWebProxy": false,
    "UseWebProxyCredentials": false,
    "WebProxyNetworkCredentialsUserName": null,
    "WebProxyNetworkCredentialsPassword": null,
    "WebProxyNetworkCredentialsDomain": null
  }
}